\relax 
\ifx\hyper@anchor\@undefined
\global \let \oldcontentsline\contentsline
\gdef \contentsline#1#2#3#4{\oldcontentsline{#1}{#2}{#3}}
\global \let \oldnewlabel\newlabel
\gdef \newlabel#1#2{\newlabelxx{#1}#2}
\gdef \newlabelxx#1#2#3#4#5#6{\oldnewlabel{#1}{{#2}{#3}}}
\AtEndDocument{\let \contentsline\oldcontentsline
\let \newlabel\oldnewlabel}
\else
\global \let \hyper@last\relax 
\fi

\@writefile{toc}{\contentsline {chapter}{\numberline {1}\discretionary {-}{}{}File \discretionary {-}{}{}Index}{1}{chapter.1}}
\@writefile{lof}{\addvspace {10\p@ }}
\@writefile{lot}{\addvspace {10\p@ }}
\@writefile{toc}{\contentsline {section}{\numberline {1.1}\discretionary {-}{}{}File \discretionary {-}{}{}List}{1}{section.1.1}}
\@writefile{toc}{\contentsline {chapter}{\numberline {2}\discretionary {-}{}{}File \discretionary {-}{}{}Documentation}{3}{chapter.2}}
\@writefile{lof}{\addvspace {10\p@ }}
\@writefile{lot}{\addvspace {10\p@ }}
\@writefile{toc}{\contentsline {section}{\numberline {2.1}4011-\/\discretionary {-}{}{}Tick\discretionary {-}{}{}Tock.c \discretionary {-}{}{}File \discretionary {-}{}{}Reference}{3}{section.2.1}}
\newlabel{4011-_tick_tock_8c}{{2.1}{3}{4011-\/\-Tick\-Tock.c \-File \-Reference\relax }{section.2.1}{}}
\@writefile{toc}{\contentsline {subsection}{\numberline {2.1.1}\discretionary {-}{}{}Detailed \discretionary {-}{}{}Description}{4}{subsection.2.1.1}}
\@writefile{toc}{\contentsline {subsection}{\numberline {2.1.2}\discretionary {-}{}{}Function \discretionary {-}{}{}Documentation}{4}{subsection.2.1.2}}
\@writefile{toc}{\contentsline {subsubsection}{\numberline {2.1.2.1}\discretionary {-}{}{}\_\discretionary {-}{}{}\discretionary {-}{}{}F\discretionary {-}{}{}O\discretionary {-}{}{}S\discretionary {-}{}{}C}{4}{subsubsection.2.1.2.1}}
\newlabel{4011-_tick_tock_8c_aecd0819514fd31e12bd0c96d6761f6b5}{{2.1.2.1}{4}{\-\_\-\-F\-O\-S\-C\relax }{subsubsection.2.1.2.1}{}}
\@writefile{toc}{\contentsline {subsubsection}{\numberline {2.1.2.2}main}{4}{subsubsection.2.1.2.2}}
\newlabel{4011-_tick_tock_8c_a840291bc02cba5474a4cb46a9b9566fe}{{2.1.2.2}{4}{main\relax }{subsubsection.2.1.2.2}{}}
\@writefile{toc}{\contentsline {subsubsection}{\numberline {2.1.2.3}show\discretionary {-}{}{}Pos}{5}{subsubsection.2.1.2.3}}
\newlabel{4011-_tick_tock_8c_a1d2542206ec4f00485e8e4eec4fc1a4e}{{2.1.2.3}{5}{show\-Pos\relax }{subsubsection.2.1.2.3}{}}
\@writefile{toc}{\contentsline {subsection}{\numberline {2.1.3}\discretionary {-}{}{}Variable \discretionary {-}{}{}Documentation}{5}{subsection.2.1.3}}
\@writefile{toc}{\contentsline {subsubsection}{\numberline {2.1.3.1}l\discretionary {-}{}{}Time}{5}{subsubsection.2.1.3.1}}
\newlabel{4011-_tick_tock_8c_a695e6be6634f0d3ee322f9c08927f1f6}{{2.1.3.1}{5}{l\-Time\relax }{subsubsection.2.1.3.1}{}}
\@writefile{toc}{\contentsline {subsubsection}{\numberline {2.1.3.2}n\discretionary {-}{}{}Action}{5}{subsubsection.2.1.3.2}}
\newlabel{4011-_tick_tock_8c_a8ea20e18e9aef2dd96a1713ecf50988c}{{2.1.3.2}{5}{n\-Action\relax }{subsubsection.2.1.3.2}{}}
\@writefile{toc}{\contentsline {subsubsection}{\numberline {2.1.3.3}n\discretionary {-}{}{}Dirty}{6}{subsubsection.2.1.3.3}}
\newlabel{4011-_tick_tock_8c_a47f50369d87c224c3609be788181227d}{{2.1.3.3}{6}{n\-Dirty\relax }{subsubsection.2.1.3.3}{}}
\@writefile{toc}{\contentsline {subsubsection}{\numberline {2.1.3.4}n\discretionary {-}{}{}Pos}{6}{subsubsection.2.1.3.4}}
\newlabel{4011-_tick_tock_8c_aab21bf45159b912d5deb21b4cc54c377}{{2.1.3.4}{6}{n\-Pos\relax }{subsubsection.2.1.3.4}{}}
\@writefile{toc}{\contentsline {subsubsection}{\numberline {2.1.3.5}n\discretionary {-}{}{}Ticker}{6}{subsubsection.2.1.3.5}}
\newlabel{4011-_tick_tock_8c_a020a6175c805fc3a890778f3c53b0ce3}{{2.1.3.5}{6}{n\-Ticker\relax }{subsubsection.2.1.3.5}{}}
\@writefile{toc}{\contentsline {section}{\numberline {2.2}\discretionary {-}{}{}T2interrupt.c \discretionary {-}{}{}File \discretionary {-}{}{}Reference}{6}{section.2.2}}
\newlabel{_t2interrupt_8c}{{2.2}{6}{\-T2interrupt.c \-File \-Reference\relax }{section.2.2}{}}
\@writefile{toc}{\contentsline {subsection}{\numberline {2.2.1}\discretionary {-}{}{}Detailed \discretionary {-}{}{}Description}{7}{subsection.2.2.1}}
\@writefile{toc}{\contentsline {subsection}{\numberline {2.2.2}\discretionary {-}{}{}Function \discretionary {-}{}{}Documentation}{7}{subsection.2.2.2}}
\@writefile{toc}{\contentsline {subsubsection}{\numberline {2.2.2.1}\discretionary {-}{}{}\_\discretionary {-}{}{}\discretionary {-}{}{}\_\discretionary {-}{}{}attribute\discretionary {-}{}{}\_\discretionary {-}{}{}\discretionary {-}{}{}\_\discretionary {-}{}{}}{7}{subsubsection.2.2.2.1}}
\newlabel{_t2interrupt_8c_a2068c3c2584547dbc1c8b9bca2d55b18}{{2.2.2.1}{7}{\-\_\-\-\_\-attribute\-\_\-\-\_\-\relax }{subsubsection.2.2.2.1}{}}
\@writefile{toc}{\contentsline {subsection}{\numberline {2.2.3}\discretionary {-}{}{}Variable \discretionary {-}{}{}Documentation}{7}{subsection.2.2.3}}
\@writefile{toc}{\contentsline {subsubsection}{\numberline {2.2.3.1}l\discretionary {-}{}{}Time}{7}{subsubsection.2.2.3.1}}
\newlabel{_t2interrupt_8c_a695e6be6634f0d3ee322f9c08927f1f6}{{2.2.3.1}{7}{l\-Time\relax }{subsubsection.2.2.3.1}{}}
\@writefile{toc}{\contentsline {subsubsection}{\numberline {2.2.3.2}n\discretionary {-}{}{}Dirty}{7}{subsubsection.2.2.3.2}}
\newlabel{_t2interrupt_8c_a47f50369d87c224c3609be788181227d}{{2.2.3.2}{7}{n\-Dirty\relax }{subsubsection.2.2.3.2}{}}
\@writefile{toc}{\contentsline {subsubsection}{\numberline {2.2.3.3}n\discretionary {-}{}{}Ticker}{7}{subsubsection.2.2.3.3}}
\newlabel{_t2interrupt_8c_a020a6175c805fc3a890778f3c53b0ce3}{{2.2.3.3}{7}{n\-Ticker\relax }{subsubsection.2.2.3.3}{}}
\@writefile{toc}{\contentsline {section}{\numberline {2.3}\discretionary {-}{}{}T3interrupt.c \discretionary {-}{}{}File \discretionary {-}{}{}Reference}{8}{section.2.3}}
\newlabel{_t3interrupt_8c}{{2.3}{8}{\-T3interrupt.c \-File \-Reference\relax }{section.2.3}{}}
\@writefile{toc}{\contentsline {subsection}{\numberline {2.3.1}\discretionary {-}{}{}Detailed \discretionary {-}{}{}Description}{9}{subsection.2.3.1}}
\@writefile{toc}{\contentsline {subsection}{\numberline {2.3.2}\discretionary {-}{}{}Define \discretionary {-}{}{}Documentation}{9}{subsection.2.3.2}}
\@writefile{toc}{\contentsline {subsubsection}{\numberline {2.3.2.1}\discretionary {-}{}{}P\discretionary {-}{}{}B\discretionary {-}{}{}\_\discretionary {-}{}{}\discretionary {-}{}{}D\discretionary {-}{}{}O\discretionary {-}{}{}W\discretionary {-}{}{}N}{9}{subsubsection.2.3.2.1}}
\newlabel{_t3interrupt_8c_a8f409772e6fcec48992ed38deb7bee3c}{{2.3.2.1}{9}{\-P\-B\-\_\-\-D\-O\-W\-N\relax }{subsubsection.2.3.2.1}{}}
\@writefile{toc}{\contentsline {subsubsection}{\numberline {2.3.2.2}\discretionary {-}{}{}P\discretionary {-}{}{}B\discretionary {-}{}{}\_\discretionary {-}{}{}\discretionary {-}{}{}L\discretionary {-}{}{}E\discretionary {-}{}{}F\discretionary {-}{}{}T}{9}{subsubsection.2.3.2.2}}
\newlabel{_t3interrupt_8c_a02e2218334103ba2aa35e6b20d0976af}{{2.3.2.2}{9}{\-P\-B\-\_\-\-L\-E\-F\-T\relax }{subsubsection.2.3.2.2}{}}
\@writefile{toc}{\contentsline {subsubsection}{\numberline {2.3.2.3}\discretionary {-}{}{}P\discretionary {-}{}{}B\discretionary {-}{}{}\_\discretionary {-}{}{}\discretionary {-}{}{}R\discretionary {-}{}{}I\discretionary {-}{}{}G\discretionary {-}{}{}H\discretionary {-}{}{}T}{9}{subsubsection.2.3.2.3}}
\newlabel{_t3interrupt_8c_ae3252380bd1a405c273a0434fa5a0401}{{2.3.2.3}{9}{\-P\-B\-\_\-\-R\-I\-G\-H\-T\relax }{subsubsection.2.3.2.3}{}}
\@writefile{toc}{\contentsline {subsubsection}{\numberline {2.3.2.4}\discretionary {-}{}{}P\discretionary {-}{}{}B\discretionary {-}{}{}\_\discretionary {-}{}{}\discretionary {-}{}{}U\discretionary {-}{}{}P}{9}{subsubsection.2.3.2.4}}
\newlabel{_t3interrupt_8c_aedfa90972c469f1db2a73b632714d115}{{2.3.2.4}{9}{\-P\-B\-\_\-\-U\-P\relax }{subsubsection.2.3.2.4}{}}
\@writefile{toc}{\contentsline {subsection}{\numberline {2.3.3}\discretionary {-}{}{}Function \discretionary {-}{}{}Documentation}{9}{subsection.2.3.3}}
\@writefile{toc}{\contentsline {subsubsection}{\numberline {2.3.3.1}\discretionary {-}{}{}\_\discretionary {-}{}{}\discretionary {-}{}{}\_\discretionary {-}{}{}attribute\discretionary {-}{}{}\_\discretionary {-}{}{}\discretionary {-}{}{}\_\discretionary {-}{}{}}{9}{subsubsection.2.3.3.1}}
\newlabel{_t3interrupt_8c_a2068c3c2584547dbc1c8b9bca2d55b18}{{2.3.3.1}{9}{\-\_\-\-\_\-attribute\-\_\-\-\_\-\relax }{subsubsection.2.3.3.1}{}}
\@writefile{toc}{\contentsline {subsection}{\numberline {2.3.4}\discretionary {-}{}{}Variable \discretionary {-}{}{}Documentation}{9}{subsection.2.3.4}}
\@writefile{toc}{\contentsline {subsubsection}{\numberline {2.3.4.1}n\discretionary {-}{}{}Action}{10}{subsubsection.2.3.4.1}}
\newlabel{_t3interrupt_8c_a8ea20e18e9aef2dd96a1713ecf50988c}{{2.3.4.1}{10}{n\-Action\relax }{subsubsection.2.3.4.1}{}}
\@writefile{toc}{\contentsline {subsubsection}{\numberline {2.3.4.2}n\discretionary {-}{}{}Buttons}{10}{subsubsection.2.3.4.2}}
\newlabel{_t3interrupt_8c_afc0a1ae5c3b25bf7837c60df44e9e533}{{2.3.4.2}{10}{n\-Buttons\relax }{subsubsection.2.3.4.2}{}}
\@writefile{toc}{\contentsline {subsubsection}{\numberline {2.3.4.3}n\discretionary {-}{}{}Off\discretionary {-}{}{}Count}{10}{subsubsection.2.3.4.3}}
\newlabel{_t3interrupt_8c_ac0374d5176a6e0ffe42f261f08267274}{{2.3.4.3}{10}{n\-Off\-Count\relax }{subsubsection.2.3.4.3}{}}
\@writefile{toc}{\contentsline {subsubsection}{\numberline {2.3.4.4}n\discretionary {-}{}{}On\discretionary {-}{}{}Count}{10}{subsubsection.2.3.4.4}}
\newlabel{_t3interrupt_8c_af2b7b482bf8a3eab1082bc874b7e8ad4}{{2.3.4.4}{10}{n\-On\-Count\relax }{subsubsection.2.3.4.4}{}}
