\BOOKMARK [0][-]{chapter.1}{\376\377\000F\000i\000l\000e\000\040\000I\000n\000d\000e\000x}{}
\BOOKMARK [1][-]{section.1.1}{\376\377\000F\000i\000l\000e\000\040\000L\000i\000s\000t}{chapter.1}
\BOOKMARK [0][-]{chapter.2}{\376\377\000F\000i\000l\000e\000\040\000D\000o\000c\000u\000m\000e\000n\000t\000a\000t\000i\000o\000n}{}
\BOOKMARK [1][-]{section.2.1}{\376\377\0004\0000\0001\0001\000-\000T\000i\000c\000k\000T\000o\000c\000k\000.\000c\000\040\000F\000i\000l\000e\000\040\000R\000e\000f\000e\000r\000e\000n\000c\000e}{chapter.2}
\BOOKMARK [2][-]{subsection.2.1.1}{\376\377\000D\000e\000t\000a\000i\000l\000e\000d\000\040\000D\000e\000s\000c\000r\000i\000p\000t\000i\000o\000n}{section.2.1}
\BOOKMARK [2][-]{subsection.2.1.2}{\376\377\000F\000u\000n\000c\000t\000i\000o\000n\000\040\000D\000o\000c\000u\000m\000e\000n\000t\000a\000t\000i\000o\000n}{section.2.1}
\BOOKMARK [3][-]{subsubsection.2.1.2.1}{\376\377\000\137\000F\000O\000S\000C}{subsection.2.1.2}
\BOOKMARK [3][-]{subsubsection.2.1.2.2}{\376\377\000m\000a\000i\000n}{subsection.2.1.2}
\BOOKMARK [3][-]{subsubsection.2.1.2.3}{\376\377\000s\000h\000o\000w\000P\000o\000s}{subsection.2.1.2}
\BOOKMARK [2][-]{subsection.2.1.3}{\376\377\000V\000a\000r\000i\000a\000b\000l\000e\000\040\000D\000o\000c\000u\000m\000e\000n\000t\000a\000t\000i\000o\000n}{section.2.1}
\BOOKMARK [3][-]{subsubsection.2.1.3.1}{\376\377\000l\000T\000i\000m\000e}{subsection.2.1.3}
\BOOKMARK [3][-]{subsubsection.2.1.3.2}{\376\377\000n\000A\000c\000t\000i\000o\000n}{subsection.2.1.3}
\BOOKMARK [3][-]{subsubsection.2.1.3.3}{\376\377\000n\000D\000i\000r\000t\000y}{subsection.2.1.3}
\BOOKMARK [3][-]{subsubsection.2.1.3.4}{\376\377\000n\000P\000o\000s}{subsection.2.1.3}
\BOOKMARK [3][-]{subsubsection.2.1.3.5}{\376\377\000n\000T\000i\000c\000k\000e\000r}{subsection.2.1.3}
\BOOKMARK [1][-]{section.2.2}{\376\377\000T\0002\000i\000n\000t\000e\000r\000r\000u\000p\000t\000.\000c\000\040\000F\000i\000l\000e\000\040\000R\000e\000f\000e\000r\000e\000n\000c\000e}{chapter.2}
\BOOKMARK [2][-]{subsection.2.2.1}{\376\377\000D\000e\000t\000a\000i\000l\000e\000d\000\040\000D\000e\000s\000c\000r\000i\000p\000t\000i\000o\000n}{section.2.2}
\BOOKMARK [2][-]{subsection.2.2.2}{\376\377\000F\000u\000n\000c\000t\000i\000o\000n\000\040\000D\000o\000c\000u\000m\000e\000n\000t\000a\000t\000i\000o\000n}{section.2.2}
\BOOKMARK [3][-]{subsubsection.2.2.2.1}{\376\377\000\137\000\137\000a\000t\000t\000r\000i\000b\000u\000t\000e\000\137\000\137}{subsection.2.2.2}
\BOOKMARK [2][-]{subsection.2.2.3}{\376\377\000V\000a\000r\000i\000a\000b\000l\000e\000\040\000D\000o\000c\000u\000m\000e\000n\000t\000a\000t\000i\000o\000n}{section.2.2}
\BOOKMARK [3][-]{subsubsection.2.2.3.1}{\376\377\000l\000T\000i\000m\000e}{subsection.2.2.3}
\BOOKMARK [3][-]{subsubsection.2.2.3.2}{\376\377\000n\000D\000i\000r\000t\000y}{subsection.2.2.3}
\BOOKMARK [3][-]{subsubsection.2.2.3.3}{\376\377\000n\000T\000i\000c\000k\000e\000r}{subsection.2.2.3}
\BOOKMARK [1][-]{section.2.3}{\376\377\000T\0003\000i\000n\000t\000e\000r\000r\000u\000p\000t\000.\000c\000\040\000F\000i\000l\000e\000\040\000R\000e\000f\000e\000r\000e\000n\000c\000e}{chapter.2}
\BOOKMARK [2][-]{subsection.2.3.1}{\376\377\000D\000e\000t\000a\000i\000l\000e\000d\000\040\000D\000e\000s\000c\000r\000i\000p\000t\000i\000o\000n}{section.2.3}
\BOOKMARK [2][-]{subsection.2.3.2}{\376\377\000D\000e\000f\000i\000n\000e\000\040\000D\000o\000c\000u\000m\000e\000n\000t\000a\000t\000i\000o\000n}{section.2.3}
\BOOKMARK [3][-]{subsubsection.2.3.2.1}{\376\377\000P\000B\000\137\000D\000O\000W\000N}{subsection.2.3.2}
\BOOKMARK [3][-]{subsubsection.2.3.2.2}{\376\377\000P\000B\000\137\000L\000E\000F\000T}{subsection.2.3.2}
\BOOKMARK [3][-]{subsubsection.2.3.2.3}{\376\377\000P\000B\000\137\000R\000I\000G\000H\000T}{subsection.2.3.2}
\BOOKMARK [3][-]{subsubsection.2.3.2.4}{\376\377\000P\000B\000\137\000U\000P}{subsection.2.3.2}
\BOOKMARK [2][-]{subsection.2.3.3}{\376\377\000F\000u\000n\000c\000t\000i\000o\000n\000\040\000D\000o\000c\000u\000m\000e\000n\000t\000a\000t\000i\000o\000n}{section.2.3}
\BOOKMARK [3][-]{subsubsection.2.3.3.1}{\376\377\000\137\000\137\000a\000t\000t\000r\000i\000b\000u\000t\000e\000\137\000\137}{subsection.2.3.3}
\BOOKMARK [2][-]{subsection.2.3.4}{\376\377\000V\000a\000r\000i\000a\000b\000l\000e\000\040\000D\000o\000c\000u\000m\000e\000n\000t\000a\000t\000i\000o\000n}{section.2.3}
\BOOKMARK [3][-]{subsubsection.2.3.4.1}{\376\377\000n\000A\000c\000t\000i\000o\000n}{subsection.2.3.4}
\BOOKMARK [3][-]{subsubsection.2.3.4.2}{\376\377\000n\000B\000u\000t\000t\000o\000n\000s}{subsection.2.3.4}
\BOOKMARK [3][-]{subsubsection.2.3.4.3}{\376\377\000n\000O\000f\000f\000C\000o\000u\000n\000t}{subsection.2.3.4}
\BOOKMARK [3][-]{subsubsection.2.3.4.4}{\376\377\000n\000O\000n\000C\000o\000u\000n\000t}{subsection.2.3.4}
